<?xml version="1.0" encoding="UTF-8" standalone="no"?>
<!-- Created with Inkscape (http://www.inkscape.org/) -->

<svg
   xmlns:dc="http://purl.org/dc/elements/1.1/"
   xmlns:cc="http://creativecommons.org/ns#"
   xmlns:rdf="http://www.w3.org/1999/02/22-rdf-syntax-ns#"
   xmlns:svg="http://www.w3.org/2000/svg"
   xmlns="http://www.w3.org/2000/svg"
   xmlns:xlink="http://www.w3.org/1999/xlink"
   xmlns:sodipodi="http://sodipodi.sourceforge.net/DTD/sodipodi-0.dtd"
   xmlns:inkscape="http://www.inkscape.org/namespaces/inkscape"
   width="12in"
   height="4in"
   viewBox="0 0 304.8 101.6"
   version="1.1"
   id="svg11813"
   inkscape:version="0.92.4 (5da689c313, 2019-01-14)"
   sodipodi:docname="GitHubToColab.svg">
  <defs
     id="defs11807">
    <marker
       inkscape:stockid="Arrow2Lend"
       orient="auto"
       refY="0.0"
       refX="0.0"
       id="Arrow2Lend"
       style="overflow:visible;"
       inkscape:isstock="true">
      <path
         id="path1299"
         style="fill-rule:evenodd;stroke-width:0.625;stroke-linejoin:round;stroke:#000000;stroke-opacity:1;fill:#000000;fill-opacity:1"
         d="M 8.7185878,4.0337352 L -2.2072895,0.016013256 L 8.7185884,-4.0017078 C 6.9730900,-1.6296469 6.9831476,1.6157441 8.7185878,4.0337352 z "
         transform="scale(1.1) rotate(180) translate(1,0)" />
    </marker>
    <marker
       inkscape:stockid="Arrow1Lend"
       orient="auto"
       refY="0.0"
       refX="0.0"
       id="marker23653"
       style="overflow:visible;"
       inkscape:isstock="true">
      <path
         id="path23651"
         d="M 0.0,0.0 L 5.0,-5.0 L -12.5,0.0 L 5.0,5.0 L 0.0,0.0 z "
         style="fill-rule:evenodd;stroke:#000000;stroke-width:1pt;stroke-opacity:1;fill:#000000;fill-opacity:1"
         transform="scale(0.8) rotate(180) translate(12.5,0)" />
    </marker>
    <marker
       inkscape:stockid="Arrow1Lend"
       orient="auto"
       refY="0.0"
       refX="0.0"
       id="Arrow1Lend"
       style="overflow:visible;"
       inkscape:isstock="true">
      <path
         id="path1281"
         d="M 0.0,0.0 L 5.0,-5.0 L -12.5,0.0 L 5.0,5.0 L 0.0,0.0 z "
         style="fill-rule:evenodd;stroke:#000000;stroke-width:1pt;stroke-opacity:1;fill:#000000;fill-opacity:1"
         transform="scale(0.8) rotate(180) translate(12.5,0)" />
    </marker>
    <marker
       inkscape:stockid="TriangleOutM"
       orient="auto"
       refY="0.0"
       refX="0.0"
       id="TriangleOutM"
       style="overflow:visible"
       inkscape:isstock="true">
      <path
         id="path1423"
         d="M 5.77,0.0 L -2.88,5.0 L -2.88,-5.0 L 5.77,0.0 z "
         style="fill-rule:evenodd;stroke:#000000;stroke-width:1pt;stroke-opacity:1;fill:#000000;fill-opacity:1"
         transform="scale(0.4)" />
    </marker>
    <marker
       inkscape:stockid="Arrow1Lstart"
       orient="auto"
       refY="0"
       refX="0"
       id="Arrow1Lstart-2-5"
       style="overflow:visible"
       inkscape:isstock="true">
      <path
         id="path1278-17-6"
         d="M 0,0 5,-5 -12.5,0 5,5 Z"
         style="fill:#000000;fill-opacity:1;fill-rule:evenodd;stroke:#000000;stroke-width:1.00000003pt;stroke-opacity:1"
         transform="matrix(0.8,0,0,0.8,10,0)"
         inkscape:connector-curvature="0" />
    </marker>
    <marker
       inkscape:stockid="Arrow1Lstart"
       orient="auto"
       refY="0"
       refX="0"
       id="Arrow1Lstart-2"
       style="overflow:visible"
       inkscape:isstock="true">
      <path
         id="path1278-17"
         d="M 0,0 5,-5 -12.5,0 5,5 Z"
         style="fill:#000000;fill-opacity:1;fill-rule:evenodd;stroke:#000000;stroke-width:1.00000003pt;stroke-opacity:1"
         transform="matrix(0.8,0,0,0.8,10,0)"
         inkscape:connector-curvature="0" />
    </marker>
    <marker
       inkscape:stockid="Arrow1Lstart"
       orient="auto"
       refY="0"
       refX="0"
       id="Arrow1Lstart-4-0"
       style="overflow:visible"
       inkscape:isstock="true">
      <path
         inkscape:connector-curvature="0"
         id="path1278-1-5"
         d="M 0,0 5,-5 -12.5,0 5,5 Z"
         style="fill:#000000;fill-opacity:1;fill-rule:evenodd;stroke:#000000;stroke-width:1.00000003pt;stroke-opacity:1"
         transform="matrix(0.8,0,0,0.8,10,0)" />
    </marker>
    <marker
       inkscape:stockid="Arrow1Lstart"
       orient="auto"
       refY="0"
       refX="0"
       id="Arrow1Lstart"
       style="overflow:visible"
       inkscape:isstock="true">
      <path
         id="path1278"
         d="M 0,0 5,-5 -12.5,0 5,5 Z"
         style="fill:#000000;fill-opacity:1;fill-rule:evenodd;stroke:#000000;stroke-width:1.00000003pt;stroke-opacity:1"
         transform="matrix(0.8,0,0,0.8,10,0)"
         inkscape:connector-curvature="0" />
    </marker>
    <filter
       id="6-8-9">
      <feGaussianBlur
         id="M-5-7"
         stdDeviation="2.58594" />
    </filter>
    <radialGradient
       id="7-74-7"
       gradientUnits="userSpaceOnUse"
       gradientTransform="matrix(2.0026052,-1.5970314,1.7773333,2.2286954,-279.23554,23.703826)"
       cx="81.790001"
       cy="100.32"
       r="44.419998"
       xlink:href="#2" />
    <linearGradient
       id="2">
      <stop
         stop-color="#eee"
         id="F" />
      <stop
         stop-color="#d2d2d2"
         id="G"
         offset="1" />
    </linearGradient>
    <radialGradient
       id="8-59-3"
       gradientUnits="userSpaceOnUse"
       gradientTransform="matrix(1,0,0,0.97467889,0,0.43910718)"
       cx="89.510002"
       cy="22.254"
       r="18.278999"
       xlink:href="#3" />
    <linearGradient
       id="3">
      <stop
         id="H" />
      <stop
         stop-opacity="0.536"
         id="I"
         offset="1" />
    </linearGradient>
    <filter
       height="1.29"
       y="-0.145"
       width="1.294"
       x="-0.147"
       id="5-3-0">
      <feGaussianBlur
         id="L-8-9"
         stdDeviation="1.81881" />
    </filter>
    <linearGradient
       id="4">
      <stop
         id="J" />
      <stop
         stop-opacity="0"
         stop-color="#ddd"
         id="K"
         offset="1" />
    </linearGradient>
    <filter
       id="6-8">
      <feGaussianBlur
         id="M-5"
         stdDeviation="2.58594" />
    </filter>
    <radialGradient
       id="7-74"
       gradientUnits="userSpaceOnUse"
       gradientTransform="matrix(2.0026052,-1.5970314,1.7773333,2.2286954,-279.23554,23.703826)"
       cx="81.790001"
       cy="100.32"
       r="44.419998"
       xlink:href="#2" />
    <radialGradient
       id="8-59"
       gradientUnits="userSpaceOnUse"
       gradientTransform="matrix(1,0,0,0.97467889,0,0.43910718)"
       cx="89.510002"
       cy="22.254"
       r="18.278999"
       xlink:href="#3" />
    <filter
       height="1.29"
       y="-0.145"
       width="1.294"
       x="-0.147"
       id="5-3">
      <feGaussianBlur
         id="L-8"
         stdDeviation="1.81881" />
    </filter>
    <filter
       id="6">
      <feGaussianBlur
         id="M"
         stdDeviation="2.58594" />
    </filter>
    <radialGradient
       id="7"
       gradientUnits="userSpaceOnUse"
       gradientTransform="matrix(2.0026052,-1.5970314,1.7773333,2.2286954,-279.23554,23.703826)"
       cx="81.790001"
       cy="100.32"
       r="44.419998"
       xlink:href="#2" />
    <radialGradient
       id="8"
       gradientUnits="userSpaceOnUse"
       gradientTransform="matrix(1,0,0,0.97467889,0,0.43910718)"
       cx="89.510002"
       cy="22.254"
       r="18.278999"
       xlink:href="#3" />
    <filter
       height="1.29"
       y="-0.145"
       width="1.294"
       x="-0.147"
       id="5">
      <feGaussianBlur
         id="L"
         stdDeviation="1.81881" />
    </filter>
    <filter
       id="6-1">
      <feGaussianBlur
         id="M-8"
         stdDeviation="2.58594" />
    </filter>
    <radialGradient
       id="7-6"
       gradientUnits="userSpaceOnUse"
       gradientTransform="matrix(1.3789694,-1.0996962,1.2238499,1.5346523,152.75826,249.31409)"
       cx="81.790001"
       cy="100.32"
       r="44.419998"
       xlink:href="#2" />
    <radialGradient
       id="8-4"
       gradientUnits="userSpaceOnUse"
       gradientTransform="matrix(1,0,0,0.97467889,0,0.43910718)"
       cx="89.510002"
       cy="22.254"
       r="18.278999"
       xlink:href="#3" />
    <filter
       height="1.29"
       y="-0.145"
       width="1.294"
       x="-0.147"
       id="5-0">
      <feGaussianBlur
         id="L-7"
         stdDeviation="1.81881" />
    </filter>
    <linearGradient
       inkscape:collect="always"
       id="linearGradient217">
      <stop
         style="stop-color:#b3b3b3;stop-opacity:1;"
         offset="0"
         id="stop213" />
      <stop
         style="stop-color:#b3b3b3;stop-opacity:0;"
         offset="1"
         id="stop215" />
    </linearGradient>
    <filter
       id="6-1-1">
      <feGaussianBlur
         id="M-8-8"
         stdDeviation="2.58594" />
    </filter>
    <radialGradient
       id="7-6-5"
       gradientUnits="userSpaceOnUse"
       gradientTransform="matrix(1.3789694,-1.0996962,1.2238499,1.5346523,152.75826,249.31409)"
       cx="81.790001"
       cy="100.32"
       r="44.419998"
       xlink:href="#2" />
    <radialGradient
       id="8-4-1"
       gradientUnits="userSpaceOnUse"
       gradientTransform="matrix(1,0,0,0.97467889,0,0.43910718)"
       cx="89.510002"
       cy="22.254"
       r="18.278999"
       xlink:href="#3" />
    <filter
       height="1.29"
       y="-0.145"
       width="1.294"
       x="-0.147"
       id="5-0-1">
      <feGaussianBlur
         id="L-7-9"
         stdDeviation="1.81881" />
    </filter>
    <filter
       id="6-1-8-4">
      <feGaussianBlur
         id="M-8-7-7"
         stdDeviation="2.58594" />
    </filter>
    <radialGradient
       id="7-6-3-8"
       gradientUnits="userSpaceOnUse"
       gradientTransform="matrix(1.3789694,-1.0996962,1.2238499,1.5346523,152.75826,249.31409)"
       cx="81.790001"
       cy="100.32"
       r="44.419998"
       xlink:href="#2" />
    <radialGradient
       id="8-4-9-9"
       gradientUnits="userSpaceOnUse"
       gradientTransform="matrix(1,0,0,0.97467889,0,0.43910718)"
       cx="89.510002"
       cy="22.254"
       r="18.278999"
       xlink:href="#3" />
    <filter
       height="1.29"
       y="-0.145"
       width="1.294"
       x="-0.147"
       id="5-0-8-9">
      <feGaussianBlur
         id="L-7-0-9"
         stdDeviation="1.81881" />
    </filter>
    <linearGradient
       inkscape:collect="always"
       xlink:href="#4"
       id="linearGradient27285"
       gradientUnits="userSpaceOnUse"
       gradientTransform="matrix(0.66596679,0,0,0.66596679,345.35058,232.93216)"
       x1="98.330002"
       y1="14.793"
       x2="86.82"
       y2="25.1" />
    <linearGradient
       inkscape:collect="always"
       xlink:href="#linearGradient217"
       id="linearGradient27287"
       gradientUnits="userSpaceOnUse"
       gradientTransform="matrix(2.6025363,0,0,2.6025363,-0.62272721,-307.32389)"
       x1="156.10417"
       y1="218.2392"
       x2="124.11794"
       y2="238.1302" />
    <filter
       id="6-1-8-4-5">
      <feGaussianBlur
         id="M-8-7-7-8"
         stdDeviation="2.58594" />
    </filter>
    <radialGradient
       id="7-6-3-8-1"
       gradientUnits="userSpaceOnUse"
       gradientTransform="matrix(1.3789694,-1.0996962,1.2238499,1.5346523,152.75826,249.31409)"
       cx="81.790001"
       cy="100.32"
       r="44.419998"
       xlink:href="#2" />
    <radialGradient
       id="8-4-9-9-3"
       gradientUnits="userSpaceOnUse"
       gradientTransform="matrix(1,0,0,0.97467889,0,0.43910718)"
       cx="89.510002"
       cy="22.254"
       r="18.278999"
       xlink:href="#3" />
    <filter
       height="1.29"
       y="-0.145"
       width="1.294"
       x="-0.147"
       id="5-0-8-9-6">
      <feGaussianBlur
         id="L-7-0-9-9"
         stdDeviation="1.81881" />
    </filter>
    <linearGradient
       inkscape:collect="always"
       xlink:href="#4"
       id="linearGradient27383"
       gradientUnits="userSpaceOnUse"
       gradientTransform="matrix(0.66596679,0,0,0.66596679,345.35058,232.93216)"
       x1="98.330002"
       y1="14.793"
       x2="86.82"
       y2="25.1" />
    <linearGradient
       inkscape:collect="always"
       xlink:href="#linearGradient217"
       id="linearGradient27385"
       gradientUnits="userSpaceOnUse"
       gradientTransform="matrix(2.6025363,0,0,2.6025363,-0.62272721,-307.32389)"
       x1="156.10417"
       y1="218.2392"
       x2="124.11794"
       y2="238.1302" />
  </defs>
  <sodipodi:namedview
     id="base"
     pagecolor="#ffffff"
     bordercolor="#666666"
     borderopacity="1.0"
     inkscape:pageopacity="0.0"
     inkscape:pageshadow="2"
     inkscape:zoom="0.98994949"
     inkscape:cx="599.96478"
     inkscape:cy="98.273104"
     inkscape:document-units="in"
     inkscape:current-layer="layer1"
     showgrid="false"
     units="in"
     inkscape:window-width="1024"
     inkscape:window-height="1252"
     inkscape:window-x="0"
     inkscape:window-y="0"
     inkscape:window-maximized="1" />
  <metadata
     id="metadata11810">
    <rdf:RDF>
      <cc:Work
         rdf:about="">
        <dc:format>image/svg+xml</dc:format>
        <dc:type
           rdf:resource="http://purl.org/dc/dcmitype/StillImage" />
        <dc:title />
      </cc:Work>
    </rdf:RDF>
  </metadata>
  <g
     inkscape:label="Layer 1"
     inkscape:groupmode="layer"
     id="layer1"
     transform="translate(0,-195.39999)">
    <path
       inkscape:connector-curvature="0"
       id="path4862"
       style="fill:#000000;fill-opacity:1;fill-rule:evenodd;stroke:none;stroke-width:1.61732566"
       d="m 69.634586,206.96237 c -14.645769,0 -26.520315,11.71626 -26.520315,26.17004 0,11.56203 7.598856,21.3698 18.138301,24.83183 1.327,0.23935 1.810568,-0.56872 1.810568,-1.26273 0,-0.62011 -0.0229,-2.26678 -0.03575,-4.45003 -7.377446,1.58079 -8.934015,-3.50862 -8.934015,-3.50862 -1.206505,-3.02184 -2.945432,-3.82669 -2.945432,-3.82669 -2.408133,-1.62419 0.182441,-1.59207 0.182441,-1.59207 2.662114,0.18648 4.062382,2.69737 4.062382,2.69737 2.3658,3.99858 6.208387,2.84349 7.719353,2.17519 0.240992,-1.69166 0.924808,-2.84513 1.683568,-3.49897 -5.889249,-0.66029 -12.081328,-2.9062 -12.081328,-12.93402 0,-2.85638 1.033896,-5.19224 2.730513,-7.02204 -0.273553,-0.66189 -1.183724,-3.3223 0.258882,-6.92569 0,0 2.227393,-0.70363 7.294382,2.68289 2.115042,-0.57996 4.384775,-0.87073 6.63983,-0.88037 2.251837,0.009 4.521585,0.30041 6.639885,0.88037 5.063734,-3.38652 7.286238,-2.68289 7.286238,-2.68289 1.447481,3.60339 0.537315,6.2638 0.26378,6.92569 1.699821,1.8298 2.727232,4.16566 2.727232,7.02204 0,10.05353 -6.201837,12.26571 -12.110621,12.91313 0.952473,0.80805 1.800798,2.40493 1.800798,4.84683 0,3.49738 -0.03251,6.32 -0.03251,7.17788 0,0.70044 0.477081,1.51496 1.823584,1.2595 10.531259,-3.46845 18.123552,-13.26978 18.123552,-24.8286 0,-14.45378 -11.876095,-26.17004 -26.525138,-26.17004" />
    <text
       xml:space="preserve"
       style="font-style:normal;font-variant:normal;font-weight:bold;font-stretch:normal;font-size:8.66506863px;line-height:1.25;font-family:sans-serif;-inkscape-font-specification:'sans-serif, Bold';font-variant-ligatures:normal;font-variant-caps:normal;font-variant-numeric:normal;font-feature-settings:normal;text-align:start;letter-spacing:0px;word-spacing:0px;writing-mode:lr-tb;text-anchor:start;fill:#000000;fill-opacity:1;stroke:none;stroke-width:0.3610445"
       x="9.4028597"
       y="208.90245"
       id="text223-8-3-0"><tspan
         style="stroke-width:0.3610445"
         sodipodi:role="line"
         id="tspan337-9-4"
         x="9.4028597"
         y="208.90245">GitHub</tspan><tspan
         style="stroke-width:0.3610445"
         sodipodi:role="line"
         id="tspan339-1-8"
         x="9.4028597"
         y="219.73378" /><tspan
         style="stroke-width:0.3610445"
         sodipodi:role="line"
         id="tspan341-8-5"
         x="9.4028597"
         y="230.56512" /><tspan
         style="stroke-width:0.3610445"
         sodipodi:role="line"
         id="tspan343-8-1"
         x="9.4028597"
         y="241.39645" /></text>
    <g
       id="g24884-6"
       transform="matrix(1.2404867,0,0,1.0262899,49.685009,-27.615321)">
      <rect
         style="opacity:1;fill:#000000;stroke:#ff7b00;stroke-width:0;stroke-miterlimit:3.0999999;stroke-dasharray:none;stroke-dashoffset:0;stroke-opacity:1"
         id="rect24581-5-4"
         width="30.00873"
         height="1.6334305"
         x="57.048508"
         y="266.07443" />
      <path
         sodipodi:type="star"
         style="opacity:1;fill:#000000;stroke:#ff7b00;stroke-width:0;stroke-miterlimit:3.0999999;stroke-dasharray:none;stroke-dashoffset:0;stroke-opacity:1"
         id="path24585-5-3"
         sodipodi:sides="3"
         sodipodi:cx="1107.1272"
         sodipodi:cy="-359.47226"
         sodipodi:r1="41.600628"
         sodipodi:r2="20.800314"
         sodipodi:arg1="2.0943951"
         sodipodi:arg2="3.1415927"
         inkscape:flatsided="false"
         inkscape:rounded="0"
         inkscape:randomized="0"
         d="m 1086.3269,-323.44506 0,-36.0272 0,-36.0272 31.2005,18.0136 31.2004,18.0136 -31.2004,18.0136 z"
         transform="matrix(0.07696147,0,0,0.10106335,2.579323,302.96577)"
         inkscape:transform-center-x="-2.75171" />
    </g>
    <flowRoot
       xml:space="preserve"
       id="flowRoot25122"
       style="fill:black;fill-opacity:1;stroke:none;font-family:Arial;font-style:normal;font-weight:bold;font-size:40px;line-height:1.25;letter-spacing:0px;word-spacing:0px;-inkscape-font-specification:'Arial, Bold';font-stretch:normal;font-variant:normal;text-anchor:start;text-align:start;writing-mode:lr;font-variant-ligatures:normal;font-variant-caps:normal;font-variant-numeric:normal;font-feature-settings:normal;"><flowRegion
         id="flowRegion25124"
         style="-inkscape-font-specification:'Arial, Bold';font-family:Arial;font-weight:bold;font-style:normal;font-stretch:normal;font-variant:normal;font-size:40px;text-anchor:start;text-align:start;writing-mode:lr;font-variant-ligatures:normal;font-variant-caps:normal;font-variant-numeric:normal;font-feature-settings:normal;"><rect
           id="rect25126"
           width="537.40118"
           height="224.25386"
           x="250.51784"
           y="-369.57379"
           style="-inkscape-font-specification:'Arial, Bold';font-family:Arial;font-weight:bold;font-style:normal;font-stretch:normal;font-variant:normal;font-size:40px;text-anchor:start;text-align:start;writing-mode:lr;font-variant-ligatures:normal;font-variant-caps:normal;font-variant-numeric:normal;font-feature-settings:normal;" /></flowRegion><flowPara
         id="flowPara25128" /></flowRoot>    <text
       xml:space="preserve"
       style="font-style:normal;font-weight:normal;font-size:26.31184578px;line-height:1.25;font-family:sans-serif;letter-spacing:0px;word-spacing:0px;fill:#800000;fill-opacity:1;stroke:none;stroke-width:0.6577962"
       x="110.07735"
       y="274.35303"
       id="text25004"><tspan
         sodipodi:role="line"
         x="110.07735"
         y="274.35303"
         style="fill:#800000;stroke-width:0.6577962"
         id="tspan25010">open </tspan></text>
    <flowRoot
       xml:space="preserve"
       id="flowRoot25469"
       style="fill:black;fill-opacity:1;stroke:none;font-family:sans-serif;font-style:normal;font-weight:normal;font-size:85.33333333px;line-height:1.25;letter-spacing:0px;word-spacing:0px;-inkscape-font-specification:'sans-serif, Normal';font-stretch:normal;font-variant:normal;text-anchor:start;text-align:start;writing-mode:lr;font-variant-ligatures:normal;font-variant-caps:normal;font-variant-numeric:normal;font-feature-settings:normal"><flowRegion
         id="flowRegion25471"><rect
           id="rect25473"
           width="265.71429"
           height="131.42857"
           x="192.85715"
           y="424" /></flowRegion><flowPara
         id="flowPara25475" /></flowRoot>    <text
       xml:space="preserve"
       style="font-style:normal;font-variant:normal;font-weight:bold;font-stretch:normal;font-size:8.66492748px;line-height:1.25;font-family:sans-serif;-inkscape-font-specification:'sans-serif, Bold';font-variant-ligatures:normal;font-variant-caps:normal;font-variant-numeric:normal;font-feature-settings:normal;text-align:start;letter-spacing:0px;word-spacing:0px;writing-mode:lr-tb;text-anchor:start;fill:#000000;fill-opacity:1;stroke:none;stroke-width:0.3610445"
       x="180.68646"
       y="209.64732"
       id="text223-8-3-0-7-5"><tspan
         style="stroke-width:0.3610445"
         sodipodi:role="line"
         id="tspan25161-3"
         x="180.68646"
         y="209.64732">Google Colab</tspan><tspan
         style="stroke-width:0.3610445"
         sodipodi:role="line"
         id="tspan25163-2"
         x="180.68646"
         y="220.47849" /><tspan
         style="stroke-width:0.3610445"
         sodipodi:role="line"
         id="tspan25165-7"
         x="180.68646"
         y="231.30965" /><tspan
         style="stroke-width:0.3610445"
         sodipodi:role="line"
         id="tspan25167-6"
         x="180.68646"
         y="242.14081" /></text>
    <g
       id="g24772-7-5-2"
       transform="matrix(0.55231088,0,0,0.56663487,-11.46772,114.13656)">
      <path
         d="M 20.09375,4.1185004 V 122.1185 H 108.9375 V 35.96225 l -0.59375,-0.625 c 0.21045,0.144391 0.41688,0.302162 0.625,0.4375 L 78.09375,4.1497504 c 0.05654,0.079597 0.09993,0.1703021 0.15625,0.25 L 78,4.1185004 Z"
         id="A-2-8-7"
         transform="matrix(0.66596679,0,0,0.66879874,345.35058,232.56875)"
         inkscape:connector-curvature="0"
         style="opacity:0.80899999;filter:url(#6-1-8-4)" />
      <g
         id="g24759-9-5-9">
        <path
           style="fill:url(#7-6-3-8);stroke-width:0.68858773"
           inkscape:connector-curvature="0"
           id="B-93-8-0"
           d="m 358.73235,234.74276 v 78.58408 h 59.16698 v -57.3772 l -20.60334,-21.20688 z" />
        <path
           style="opacity:0.50499998;fill:url(#8-4-9-9);filter:url(#5-0-8-9)"
           inkscape:connector-curvature="0"
           transform="matrix(0.69966366,0,0,0.76587551,341.64534,232.7542)"
           d="m 81.698039,28.309502 0.135161,-8.351 C 81.901124,13.359407 80.956142,8.4107397 77.785779,3.9471419 L 80.362343,3.9159389 107.86271,29.53084 c -4.06802,-2.645393 -9.621189,-0.791242 -16.861906,-1.025606 z"
           id="C-0-7-6" />
        <path
           style="fill:#eeeeee;stroke-width:0.68858773"
           inkscape:connector-curvature="0"
           id="D-2-2-6"
           d="m 401.23611,250.76554 0.09,-5.56149 c 0.0452,-4.39478 -1.85338,-7.46159 -3.96474,-10.43419 l 20.56587,21.06263 c -2.70917,-1.76174 -5.67373,-4.78052 -10.49581,-4.9366 z" />
        <path
           style="fill:url(#linearGradient27285);stroke-width:0.68858773"
           inkscape:connector-curvature="0"
           d="m 401.23611,250.76554 0.09,-5.56149 c 0.0452,-4.39478 -1.85338,-7.46159 -3.96474,-10.43419 l 20.56587,21.06263 c -2.70917,-1.76174 -5.67373,-4.78052 -10.49581,-4.9366 z"
           id="E-7-8-8" />
        <ellipse
           id="path211-9-9-5"
           cx="388.58957"
           cy="281.46844"
           style="fill:url(#linearGradient27287);fill-opacity:1;stroke-width:0.69491971"
           rx="27.11314"
           ry="26.621292" />
        <text
           xml:space="preserve"
           style="font-style:normal;font-variant:normal;font-weight:bold;font-stretch:normal;font-size:16.52610588px;line-height:1.25;font-family:sans-serif;-inkscape-font-specification:'sans-serif, Bold';font-variant-ligatures:normal;font-variant-caps:normal;font-variant-numeric:normal;font-feature-settings:normal;text-align:start;letter-spacing:0px;word-spacing:0px;writing-mode:lr-tb;text-anchor:start;fill:#000000;fill-opacity:1;stroke:none;stroke-width:0.68858773"
           x="363.46811"
           y="286.74344"
           id="text223-9-6-0"><tspan
             sodipodi:role="line"
             id="tspan237-5-9-9"
             x="363.46811"
             y="286.74344"
             style="stroke-width:0.68858773">ipynb</tspan><tspan
             sodipodi:role="line"
             id="tspan239-2-1-7"
             x="363.46811"
             y="307.40106"
             style="stroke-width:0.68858773" /><tspan
             sodipodi:role="line"
             id="tspan241-0-1-6"
             x="363.46811"
             y="328.05872"
             style="stroke-width:0.68858773" /></text>
      </g>
    </g>
    <g
       id="g24772-7-5-2-5"
       transform="matrix(0.55231088,0,0,0.56663487,-181.66864,112.42139)">
      <path
         d="M 20.09375,4.1185004 V 122.1185 H 108.9375 V 35.96225 l -0.59375,-0.625 c 0.21045,0.144391 0.41688,0.302162 0.625,0.4375 L 78.09375,4.1497504 c 0.05654,0.079597 0.09993,0.1703021 0.15625,0.25 L 78,4.1185004 Z"
         id="A-2-8-7-1"
         transform="matrix(0.66596679,0,0,0.66879874,345.35058,232.56875)"
         inkscape:connector-curvature="0"
         style="opacity:0.80899999;filter:url(#6-1-8-4-5)" />
      <g
         id="g24759-9-5-9-9">
        <path
           style="fill:url(#7-6-3-8-1);stroke-width:0.68858773"
           inkscape:connector-curvature="0"
           id="B-93-8-0-2"
           d="m 358.73235,234.74276 v 78.58408 h 59.16698 v -57.3772 l -20.60334,-21.20688 z" />
        <path
           style="opacity:0.50499998;fill:url(#8-4-9-9-3);filter:url(#5-0-8-9-6)"
           inkscape:connector-curvature="0"
           transform="matrix(0.69966366,0,0,0.76587551,341.64534,232.7542)"
           d="m 81.698039,28.309502 0.135161,-8.351 C 81.901124,13.359407 80.956142,8.4107397 77.785779,3.9471419 L 80.362343,3.9159389 107.86271,29.53084 c -4.06802,-2.645393 -9.621189,-0.791242 -16.861906,-1.025606 z"
           id="C-0-7-6-2" />
        <path
           style="fill:#eeeeee;stroke-width:0.68858773"
           inkscape:connector-curvature="0"
           id="D-2-2-6-6"
           d="m 401.23611,250.76554 0.09,-5.56149 c 0.0452,-4.39478 -1.85338,-7.46159 -3.96474,-10.43419 l 20.56587,21.06263 c -2.70917,-1.76174 -5.67373,-4.78052 -10.49581,-4.9366 z" />
        <path
           style="fill:url(#linearGradient27383);stroke-width:0.68858773"
           inkscape:connector-curvature="0"
           d="m 401.23611,250.76554 0.09,-5.56149 c 0.0452,-4.39478 -1.85338,-7.46159 -3.96474,-10.43419 l 20.56587,21.06263 c -2.70917,-1.76174 -5.67373,-4.78052 -10.49581,-4.9366 z"
           id="E-7-8-8-1" />
        <ellipse
           id="path211-9-9-5-0"
           cx="388.58957"
           cy="281.46844"
           style="fill:url(#linearGradient27385);fill-opacity:1;stroke-width:0.69491971"
           rx="27.11314"
           ry="26.621292" />
        <text
           xml:space="preserve"
           style="font-style:normal;font-variant:normal;font-weight:bold;font-stretch:normal;font-size:16.52610588px;line-height:1.25;font-family:sans-serif;-inkscape-font-specification:'sans-serif, Bold';font-variant-ligatures:normal;font-variant-caps:normal;font-variant-numeric:normal;font-feature-settings:normal;text-align:start;letter-spacing:0px;word-spacing:0px;writing-mode:lr-tb;text-anchor:start;fill:#000000;fill-opacity:1;stroke:none;stroke-width:0.68858773"
           x="363.46811"
           y="286.74344"
           id="text223-9-6-0-1"><tspan
             sodipodi:role="line"
             id="tspan237-5-9-9-0"
             x="363.46811"
             y="286.74344"
             style="stroke-width:0.68858773">ipynb</tspan><tspan
             sodipodi:role="line"
             id="tspan239-2-1-7-8"
             x="363.46811"
             y="307.40106"
             style="stroke-width:0.68858773" /><tspan
             sodipodi:role="line"
             id="tspan241-0-1-6-2"
             x="363.46811"
             y="328.05872"
             style="stroke-width:0.68858773" /></text>
      </g>
    </g>
    <g
       transform="matrix(0.74993714,-0.01988856,0.01988856,0.74993714,111.43989,387.62214)"
       id="g4768">
      <g
         transform="matrix(0.85433168,0,0,0.85433168,36.564444,-32.281833)"
         id="g5314">
        <g
           transform="rotate(2.2859449,185.57164,-195.84027)"
           id="g4768-9">
          <g
             id="g4753"
             transform="rotate(2.0620163,164.80223,-197.52738)">
            <g
               transform="translate(21.695842,-70.908357)"
               id="g4686">
              <g
                 transform="rotate(90,138.49011,-118.53465)"
                 id="g4691">
                <path
                   inkscape:connector-curvature="0"
                   id="path4547-5"
                   d="m 167.35074,-142.10372 -57.92594,46.765848 a 37.238035,37.238035 0 0 0 29.06538,13.97171 37.238035,37.238035 0 0 0 37.23805,-37.238158 37.238035,37.238035 0 0 0 -8.37749,-23.4994 z"
                   style="opacity:1;fill:#ffa800;fill-opacity:1;stroke:#ff7b00;stroke-width:0;stroke-miterlimit:4;stroke-dasharray:none;stroke-dashoffset:0;stroke-opacity:1" />
                <path
                   inkscape:connector-curvature="0"
                   id="path10-3"
                   d="m 138.49018,-155.70314 a 37.238035,37.238035 0 0 0 -37.23818,37.23821 37.238035,37.238035 0 0 0 8.1728,23.266438 l 57.92594,-46.765848 a 37.238035,37.238035 0 0 0 -28.86056,-13.7388 z"
                   style="opacity:1;fill:#ffdd3d;fill-opacity:1;stroke:#ffdd3d;stroke-width:0;stroke-miterlimit:4;stroke-dasharray:none;stroke-dashoffset:0;stroke-opacity:1" />
                <circle
                   r="19.784954"
                   cy="-118.5326"
                   cx="138.53777"
                   id="path12-5"
                   style="opacity:1;fill:#ffffff;stroke:#ff7b00;stroke-width:0;stroke-miterlimit:4;stroke-dasharray:none;stroke-dashoffset:0;stroke-opacity:1" />
              </g>
            </g>
            <path
               inkscape:connector-curvature="0"
               id="path10-6"
               d="m 167.82749,-151.92993 a 37.238035,37.238035 0 0 0 29.4359,-43.66816 37.238035,37.238035 0 0 0 -12.46829,-21.2759 l -47.92176,56.97353 a 37.238035,37.238035 0 0 0 30.95415,7.97053 z"
               style="opacity:1;fill:#ffdd3d;fill-opacity:1;stroke:#ffdd3d;stroke-width:0;stroke-miterlimit:4;stroke-dasharray:none;stroke-dashoffset:0;stroke-opacity:1" />
            <circle
               r="19.784954"
               cy="-188.54764"
               cx="160.79083"
               id="path12-2"
               style="opacity:1;fill:#ffffff;stroke:#ff7b00;stroke-width:0;stroke-miterlimit:4;stroke-dasharray:none;stroke-dashoffset:0;stroke-opacity:1" />
            <path
               transform="matrix(0.73303814,0.0408956,-0.09663741,1.7321888,51.501039,10.197141)"
               inkscape:transform-center-y="-3.2289869"
               inkscape:transform-center-x="7.5458597"
               d="m 198.5342,-88.17099 -33.51472,-14.63082 -33.51473,-14.63081 29.42802,-21.7092 29.42802,-21.7092 4.08671,36.34002 z"
               inkscape:randomized="0"
               inkscape:rounded="0"
               inkscape:flatsided="false"
               sodipodi:arg2="1.9824082"
               sodipodi:arg1="0.93521062"
               sodipodi:r2="21.113169"
               sodipodi:r1="42.226337"
               sodipodi:cy="-122.15154"
               sodipodi:cx="173.46658"
               sodipodi:sides="3"
               id="path4733"
               style="opacity:1;fill:#ffffff;fill-opacity:1;stroke:#333020;stroke-width:0;stroke-miterlimit:4;stroke-dasharray:none;stroke-dashoffset:0;stroke-opacity:1"
               sodipodi:type="star" />
          </g>
          <g
             id="g4743"
             transform="matrix(0.99263993,-0.25721901,0.25721901,0.99263993,35.972998,59.804142)">
            <path
               inkscape:connector-curvature="0"
               id="path4547"
               d="m 254.70969,-217.20713 -57.92593,46.76585 a 37.238035,37.238035 0 0 0 29.06538,13.97171 37.238035,37.238035 0 0 0 37.23805,-37.23816 37.238035,37.238035 0 0 0 -8.3775,-23.4994 z"
               style="opacity:1;fill:#ffa800;fill-opacity:1;stroke:#ff7b00;stroke-width:0;stroke-miterlimit:4;stroke-dasharray:none;stroke-dashoffset:0;stroke-opacity:1" />
            <path
               inkscape:connector-curvature="0"
               id="path10"
               d="m 225.84914,-230.80655 a 37.238035,37.238035 0 0 0 -37.23818,37.23822 37.238035,37.238035 0 0 0 8.1728,23.26644 l 57.92593,-46.76586 a 37.238035,37.238035 0 0 0 -28.86055,-13.7388 z"
               style="opacity:1;fill:#ffdd3d;fill-opacity:1;stroke:#ffdd3d;stroke-width:0;stroke-miterlimit:4;stroke-dasharray:none;stroke-dashoffset:0;stroke-opacity:1" />
            <circle
               r="19.784954"
               cy="-193.63573"
               cx="225.89542"
               id="path12"
               style="opacity:1;fill:#ffffff;stroke:#ff7b00;stroke-width:0;stroke-miterlimit:4;stroke-dasharray:none;stroke-dashoffset:0;stroke-opacity:1" />
          </g>
        </g>
      </g>
    </g>
  </g>
</svg>
