<?xml version="1.0" encoding="UTF-8" standalone="no"?>
<!-- Created with Inkscape (http://www.inkscape.org/) -->

<svg
   xmlns:dc="http://purl.org/dc/elements/1.1/"
   xmlns:cc="http://creativecommons.org/ns#"
   xmlns:rdf="http://www.w3.org/1999/02/22-rdf-syntax-ns#"
   xmlns:svg="http://www.w3.org/2000/svg"
   xmlns="http://www.w3.org/2000/svg"
   xmlns:xlink="http://www.w3.org/1999/xlink"
   xmlns:sodipodi="http://sodipodi.sourceforge.net/DTD/sodipodi-0.dtd"
   xmlns:inkscape="http://www.inkscape.org/namespaces/inkscape"
   width="12in"
   height="4in"
   viewBox="0 0 304.8 101.6"
   version="1.1"
   id="svg8"
   inkscape:version="0.92.4 (5da689c313, 2019-01-14)"
   sodipodi:docname="renderprocess.svg">
  <defs
     id="defs2">
    <marker
       inkscape:stockid="Arrow1Lstart"
       orient="auto"
       refY="0"
       refX="0"
       id="Arrow1Lstart"
       style="overflow:visible"
       inkscape:isstock="true">
      <path
         id="path1278"
         d="M 0,0 5,-5 -12.5,0 5,5 Z"
         style="fill:#000000;fill-opacity:1;fill-rule:evenodd;stroke:#000000;stroke-width:1.00000003pt;stroke-opacity:1"
         transform="matrix(0.8,0,0,0.8,10,0)"
         inkscape:connector-curvature="0" />
    </marker>
    <marker
       inkscape:stockid="Arrow1Lend"
       orient="auto"
       refY="0"
       refX="0"
       id="Arrow1Lend"
       style="overflow:visible"
       inkscape:isstock="true">
      <path
         id="path1281"
         d="M 0,0 5,-5 -12.5,0 5,5 Z"
         style="fill:#000000;fill-opacity:1;fill-rule:evenodd;stroke:#000000;stroke-width:1.00000003pt;stroke-opacity:1"
         transform="matrix(-0.8,0,0,-0.8,-10,0)"
         inkscape:connector-curvature="0" />
    </marker>
    <linearGradient
       inkscape:collect="always"
       id="linearGradient217">
      <stop
         style="stop-color:#b3b3b3;stop-opacity:1;"
         offset="0"
         id="stop213" />
      <stop
         style="stop-color:#b3b3b3;stop-opacity:0;"
         offset="1"
         id="stop215" />
    </linearGradient>
    <linearGradient
       id="2">
      <stop
         stop-color="#eee"
         id="F" />
      <stop
         stop-color="#d2d2d2"
         id="G"
         offset="1" />
    </linearGradient>
    <linearGradient
       id="3">
      <stop
         id="H" />
      <stop
         stop-opacity="0.536"
         id="I"
         offset="1" />
    </linearGradient>
    <linearGradient
       id="4">
      <stop
         id="J" />
      <stop
         stop-opacity="0"
         stop-color="#ddd"
         id="K"
         offset="1" />
    </linearGradient>
    <filter
       height="1.29"
       y="-0.145"
       width="1.294"
       x="-0.147"
       id="5">
      <feGaussianBlur
         id="L"
         stdDeviation="1.81881" />
    </filter>
    <filter
       id="6">
      <feGaussianBlur
         id="M"
         stdDeviation="2.58594" />
    </filter>
    <radialGradient
       id="7"
       gradientUnits="userSpaceOnUse"
       gradientTransform="matrix(1.3789694,-1.0996962,1.2238499,1.5346523,152.75826,249.31409)"
       cx="81.790001"
       cy="100.32"
       r="44.419998"
       xlink:href="#2" />
    <radialGradient
       id="8"
       gradientUnits="userSpaceOnUse"
       gradientTransform="matrix(1,0,0,0.97467889,0,0.43910718)"
       cx="89.510002"
       cy="22.254"
       r="18.278999"
       xlink:href="#3" />
    <linearGradient
       id="9"
       gradientUnits="userSpaceOnUse"
       gradientTransform="matrix(0.66596679,0,0,0.66596679,345.35058,232.93216)"
       x1="98.330002"
       y1="14.793"
       x2="86.82"
       y2="25.1"
       xlink:href="#4" />
    <filter
       id="6-3">
      <feGaussianBlur
         id="M-6"
         stdDeviation="2.58594" />
    </filter>
    <radialGradient
       id="7-7"
       gradientUnits="userSpaceOnUse"
       gradientTransform="matrix(2.0026052,-1.5970314,1.7773333,2.2286954,-279.23554,23.703826)"
       cx="81.790001"
       cy="100.32"
       r="44.419998"
       xlink:href="#2" />
    <radialGradient
       id="8-5"
       gradientUnits="userSpaceOnUse"
       gradientTransform="matrix(1,0,0,0.97467889,0,0.43910718)"
       cx="89.510002"
       cy="22.254"
       r="18.278999"
       xlink:href="#3" />
    <filter
       height="1.29"
       y="-0.145"
       width="1.294"
       x="-0.147"
       id="5-9">
      <feGaussianBlur
         id="L-1"
         stdDeviation="1.81881" />
    </filter>
    <linearGradient
       inkscape:collect="always"
       xlink:href="#linearGradient217"
       id="linearGradient219"
       x1="156.10417"
       y1="218.2392"
       x2="124.11794"
       y2="238.1302"
       gradientUnits="userSpaceOnUse"
       gradientTransform="matrix(2.6025363,0,0,2.6025363,-0.62272721,-307.32389)" />
    <linearGradient
       gradientTransform="matrix(2.6025363,0,0,2.6025363,-339.07362,-307.70743)"
       inkscape:collect="always"
       xlink:href="#linearGradient217"
       id="linearGradient219-2"
       x1="156.10417"
       y1="218.2392"
       x2="124.11794"
       y2="238.1302"
       gradientUnits="userSpaceOnUse" />
    <filter
       id="6-8">
      <feGaussianBlur
         id="M-5"
         stdDeviation="2.58594" />
    </filter>
    <radialGradient
       id="7-74"
       gradientUnits="userSpaceOnUse"
       gradientTransform="matrix(2.0026052,-1.5970314,1.7773333,2.2286954,-279.23554,23.703826)"
       cx="81.790001"
       cy="100.32"
       r="44.419998"
       xlink:href="#2" />
    <radialGradient
       id="8-59"
       gradientUnits="userSpaceOnUse"
       gradientTransform="matrix(1,0,0,0.97467889,0,0.43910718)"
       cx="89.510002"
       cy="22.254"
       r="18.278999"
       xlink:href="#3" />
    <filter
       height="1.29"
       y="-0.145"
       width="1.294"
       x="-0.147"
       id="5-3">
      <feGaussianBlur
         id="L-8"
         stdDeviation="1.81881" />
    </filter>
    <linearGradient
       inkscape:collect="always"
       xlink:href="#4"
       id="linearGradient335"
       gradientUnits="userSpaceOnUse"
       gradientTransform="matrix(0.96714879,0,0,0.96714879,0.45622123,-0.08680339)"
       x1="98.330002"
       y1="14.793"
       x2="86.82"
       y2="25.1" />
    <linearGradient
       gradientTransform="matrix(1.3296221,0,0,1.3296221,-80.077059,-37.217629)"
       inkscape:collect="always"
       xlink:href="#linearGradient217"
       id="linearGradient219-2-8"
       x1="156.10417"
       y1="218.2392"
       x2="124.11794"
       y2="238.1302"
       gradientUnits="userSpaceOnUse" />
    <filter
       id="6-8-9">
      <feGaussianBlur
         id="M-5-7"
         stdDeviation="2.58594" />
    </filter>
    <radialGradient
       id="7-74-7"
       gradientUnits="userSpaceOnUse"
       gradientTransform="matrix(2.0026052,-1.5970314,1.7773333,2.2286954,-279.23554,23.703826)"
       cx="81.790001"
       cy="100.32"
       r="44.419998"
       xlink:href="#2" />
    <radialGradient
       id="8-59-3"
       gradientUnits="userSpaceOnUse"
       gradientTransform="matrix(1,0,0,0.97467889,0,0.43910718)"
       cx="89.510002"
       cy="22.254"
       r="18.278999"
       xlink:href="#3" />
    <filter
       height="1.29"
       y="-0.145"
       width="1.294"
       x="-0.147"
       id="5-3-0">
      <feGaussianBlur
         id="L-8-9"
         stdDeviation="1.81881" />
    </filter>
    <linearGradient
       inkscape:collect="always"
       xlink:href="#4"
       id="linearGradient440"
       gradientUnits="userSpaceOnUse"
       gradientTransform="matrix(0.96714879,0,0,0.96714879,0.45622123,-0.08680339)"
       x1="98.330002"
       y1="14.793"
       x2="86.82"
       y2="25.1" />
    <marker
       inkscape:stockid="Arrow1Lstart"
       orient="auto"
       refY="0"
       refX="0"
       id="Arrow1Lstart-4"
       style="overflow:visible"
       inkscape:isstock="true">
      <path
         inkscape:connector-curvature="0"
         id="path1278-1"
         d="M 0,0 5,-5 -12.5,0 5,5 Z"
         style="fill:#000000;fill-opacity:1;fill-rule:evenodd;stroke:#000000;stroke-width:1.00000003pt;stroke-opacity:1"
         transform="matrix(0.8,0,0,0.8,10,0)" />
    </marker>
    <clipPath
       id="clipPath4048"
       clipPathUnits="userSpaceOnUse">
      <path
         inkscape:connector-curvature="0"
         id="path4046"
         d="M 0,576 H 576 V 0 H 0 Z" />
    </clipPath>
    <marker
       inkscape:stockid="Arrow1Lstart"
       orient="auto"
       refY="0"
       refX="0"
       id="Arrow1Lstart-4-5"
       style="overflow:visible"
       inkscape:isstock="true">
      <path
         inkscape:connector-curvature="0"
         id="path1278-1-8"
         d="M 0,0 5,-5 -12.5,0 5,5 Z"
         style="fill:#000000;fill-opacity:1;fill-rule:evenodd;stroke:#000000;stroke-width:1.00000003pt;stroke-opacity:1"
         transform="matrix(0.8,0,0,0.8,10,0)" />
    </marker>
    <clipPath
       id="clipPath4858"
       clipPathUnits="userSpaceOnUse">
      <path
         inkscape:connector-curvature="0"
         id="path4856"
         d="M 0,551.986 H 530.973 V 0 H 0 Z" />
    </clipPath>
    <marker
       inkscape:stockid="Arrow1Lstart"
       orient="auto"
       refY="0"
       refX="0"
       id="Arrow1Lstart-4-5-1"
       style="overflow:visible"
       inkscape:isstock="true">
      <path
         inkscape:connector-curvature="0"
         id="path1278-1-8-8"
         d="M 0,0 5,-5 -12.5,0 5,5 Z"
         style="fill:#000000;fill-opacity:1;fill-rule:evenodd;stroke:#000000;stroke-width:1.00000003pt;stroke-opacity:1"
         transform="matrix(0.8,0,0,0.8,10,0)" />
    </marker>
    <marker
       inkscape:stockid="Arrow1Lstart"
       orient="auto"
       refY="0"
       refX="0"
       id="Arrow1Lstart-4-0"
       style="overflow:visible"
       inkscape:isstock="true">
      <path
         inkscape:connector-curvature="0"
         id="path1278-1-5"
         d="M 0,0 5,-5 -12.5,0 5,5 Z"
         style="fill:#000000;fill-opacity:1;fill-rule:evenodd;stroke:#000000;stroke-width:1.00000003pt;stroke-opacity:1"
         transform="matrix(0.8,0,0,0.8,10,0)" />
    </marker>
    <marker
       inkscape:stockid="Arrow1Lstart"
       orient="auto"
       refY="0"
       refX="0"
       id="Arrow1Lstart-2"
       style="overflow:visible"
       inkscape:isstock="true">
      <path
         id="path1278-17"
         d="M 0,0 5,-5 -12.5,0 5,5 Z"
         style="fill:#000000;fill-opacity:1;fill-rule:evenodd;stroke:#000000;stroke-width:1.00000003pt;stroke-opacity:1"
         transform="matrix(0.8,0,0,0.8,10,0)"
         inkscape:connector-curvature="0" />
    </marker>
    <marker
       inkscape:stockid="Arrow1Lstart"
       orient="auto"
       refY="0"
       refX="0"
       id="Arrow1Lstart-2-5"
       style="overflow:visible"
       inkscape:isstock="true">
      <path
         id="path1278-17-6"
         d="M 0,0 5,-5 -12.5,0 5,5 Z"
         style="fill:#000000;fill-opacity:1;fill-rule:evenodd;stroke:#000000;stroke-width:1.00000003pt;stroke-opacity:1"
         transform="matrix(0.8,0,0,0.8,10,0)"
         inkscape:connector-curvature="0" />
    </marker>
    <filter
       id="6-1">
      <feGaussianBlur
         id="M-8"
         stdDeviation="2.58594" />
    </filter>
    <radialGradient
       id="7-6"
       gradientUnits="userSpaceOnUse"
       gradientTransform="matrix(1.3789694,-1.0996962,1.2238499,1.5346523,152.75826,249.31409)"
       cx="81.790001"
       cy="100.32"
       r="44.419998"
       xlink:href="#2" />
    <radialGradient
       id="8-4"
       gradientUnits="userSpaceOnUse"
       gradientTransform="matrix(1,0,0,0.97467889,0,0.43910718)"
       cx="89.510002"
       cy="22.254"
       r="18.278999"
       xlink:href="#3" />
    <filter
       height="1.29"
       y="-0.145"
       width="1.294"
       x="-0.147"
       id="5-0">
      <feGaussianBlur
         id="L-7"
         stdDeviation="1.81881" />
    </filter>
  </defs>
  <sodipodi:namedview
     id="base"
     pagecolor="#ffffff"
     bordercolor="#666666"
     borderopacity="1.0"
     inkscape:pageopacity="0.0"
     inkscape:pageshadow="2"
     inkscape:zoom="0.7"
     inkscape:cx="561.36602"
     inkscape:cy="186.08617"
     inkscape:document-units="in"
     inkscape:current-layer="layer1"
     showgrid="false"
     units="in"
     inkscape:window-width="1024"
     inkscape:window-height="1252"
     inkscape:window-x="0"
     inkscape:window-y="0"
     inkscape:window-maximized="1" />
  <metadata
     id="metadata5">
    <rdf:RDF>
      <cc:Work
         rdf:about="">
        <dc:format>image/svg+xml</dc:format>
        <dc:type
           rdf:resource="http://purl.org/dc/dcmitype/StillImage" />
        <dc:title></dc:title>
      </cc:Work>
    </rdf:RDF>
  </metadata>
  <g
     inkscape:label="Layer 1"
     inkscape:groupmode="layer"
     id="layer1"
     transform="translate(0,-195.39999)">
    <flowRoot
       xml:space="preserve"
       id="flowRoot3889-4"
       style="font-style:italic;font-variant:normal;font-weight:bold;font-stretch:normal;font-size:46.66666794px;line-height:1.25;font-family:sans-serif;-inkscape-font-specification:'sans-serif, Bold Italic';font-variant-ligatures:normal;font-variant-caps:normal;font-variant-numeric:normal;font-feature-settings:normal;text-align:start;letter-spacing:0px;word-spacing:0px;writing-mode:lr-tb;text-anchor:start;opacity:1;fill:#000000;fill-opacity:1;stroke:none"
       transform="matrix(0.26458333,0,0,0.26458333,31.659312,260.74693)"><flowRegion
         id="flowRegion3891-2"
         style="font-style:italic;font-variant:normal;font-weight:bold;font-stretch:normal;font-size:46.66666794px;font-family:sans-serif;-inkscape-font-specification:'sans-serif, Bold Italic';font-variant-ligatures:normal;font-variant-caps:normal;font-variant-numeric:normal;font-feature-settings:normal;text-align:start;writing-mode:lr-tb;text-anchor:start"><rect
           id="rect3893-2"
           width="181.42857"
           height="58.57143"
           x="201.42857"
           y="-88.571426"
           style="font-style:italic;font-variant:normal;font-weight:bold;font-stretch:normal;font-size:46.66666794px;font-family:sans-serif;-inkscape-font-specification:'sans-serif, Bold Italic';font-variant-ligatures:normal;font-variant-caps:normal;font-variant-numeric:normal;font-feature-settings:normal;text-align:start;writing-mode:lr-tb;text-anchor:start" /></flowRegion><flowPara
         id="flowPara3925">pandoc</flowPara><flowPara
         id="flowPara3927"></flowPara></flowRoot>    <flowRoot
       xml:space="preserve"
       id="flowRoot3889-1"
       style="font-style:italic;font-variant:normal;font-weight:bold;font-stretch:normal;font-size:46.66666794px;line-height:1.25;font-family:sans-serif;-inkscape-font-specification:'sans-serif, Bold Italic';font-variant-ligatures:normal;font-variant-caps:normal;font-variant-numeric:normal;font-feature-settings:normal;text-align:start;letter-spacing:0px;word-spacing:0px;writing-mode:lr-tb;text-anchor:start;opacity:1;fill:#000000;fill-opacity:1;stroke:none"
       transform="matrix(0.26458333,0,0,0.26458333,35.401086,327.02977)"><flowRegion
         id="flowRegion3891-6"
         style="font-style:italic;font-variant:normal;font-weight:bold;font-stretch:normal;font-size:46.66666794px;font-family:sans-serif;-inkscape-font-specification:'sans-serif, Bold Italic';font-variant-ligatures:normal;font-variant-caps:normal;font-variant-numeric:normal;font-feature-settings:normal;text-align:start;writing-mode:lr-tb;text-anchor:start"><rect
           id="rect3893-9"
           width="181.42857"
           height="58.57143"
           x="201.42857"
           y="-88.571426"
           style="font-style:italic;font-variant:normal;font-weight:bold;font-stretch:normal;font-size:46.66666794px;font-family:sans-serif;-inkscape-font-specification:'sans-serif, Bold Italic';font-variant-ligatures:normal;font-variant-caps:normal;font-variant-numeric:normal;font-feature-settings:normal;text-align:start;writing-mode:lr-tb;text-anchor:start" /></flowRegion><flowPara
         id="flowPara3953">pandoc</flowPara><flowPara
         id="flowPara3955"></flowPara></flowRoot>    <text
       xml:space="preserve"
       style="font-style:normal;font-weight:normal;font-size:10.58333302px;line-height:1.25;font-family:sans-serif;letter-spacing:0px;word-spacing:0px;fill:#000000;fill-opacity:1;stroke:none;stroke-width:0.26458332"
       x="81.249931"
       y="321.05426"
       id="text3959"><tspan
         sodipodi:role="line"
         id="tspan3957"
         x="81.249931"
         y="330.41803"
         style="stroke-width:0.26458332" /></text>
    <flowRoot
       xml:space="preserve"
       id="flowRoot4156"
       style="font-style:normal;font-weight:normal;font-size:40px;line-height:1.25;font-family:sans-serif;letter-spacing:0px;word-spacing:0px;fill:#000000;fill-opacity:1;stroke:none"
       transform="matrix(0.26458333,0,0,0.26458333,0,169.99999)"><flowRegion
         id="flowRegion4158"><rect
           id="rect4160"
           width="410.12195"
           height="179.80716"
           x="2.0203052"
           y="690.11176" /></flowRegion><flowPara
         id="flowPara4162"></flowPara></flowRoot>    <path
       inkscape:connector-curvature="0"
       id="path4898"
       style="fill:#cccccc;stroke:#3a7fc3;stroke-width:0.39022446;stroke-linecap:round;stroke-linejoin:miter;stroke-miterlimit:10;stroke-dasharray:none;stroke-opacity:1"
       d="m 5.5234106,88.732678 v 0.18802" />
    <path
       inkscape:connector-curvature="0"
       id="path4906"
       style="fill:#cccccc;stroke:#3a7fc3;stroke-width:0.39022446;stroke-linecap:round;stroke-linejoin:miter;stroke-miterlimit:10;stroke-dasharray:none;stroke-opacity:1"
       d="m 2.8775771,208.16874 v 0.18802" />
    <g
       transform="matrix(0.23055521,0,0,-0.28114688,305.88374,385.23724)"
       id="g24589-2"
       style="fill:#cccccc" />
    <flowRoot
       xml:space="preserve"
       id="flowRoot9308"
       style="font-style:normal;font-weight:normal;font-size:40px;line-height:1.25;font-family:sans-serif;letter-spacing:0px;word-spacing:0px;fill:#000000;fill-opacity:1;stroke:none"
       transform="matrix(0.26458333,0,0,0.26458333,0,195.39999)"><flowRegion
         id="flowRegion9310"><rect
           id="rect9312"
           width="442.85718"
           height="117.14284"
           x="388.57144"
           y="621.14288" /></flowRegion><flowPara
         id="flowPara9314" /></flowRoot>    <g
       id="g24772"
       transform="matrix(0.76562811,0,0,0.76562811,-107.58191,52.010669)">
      <path
         d="M 20.09375,4.1185004 V 122.1185 H 108.9375 V 35.96225 l -0.59375,-0.625 c 0.21045,0.144391 0.41688,0.302162 0.625,0.4375 L 78.09375,4.1497504 c 0.05654,0.079597 0.09993,0.1703021 0.15625,0.25 L 78,4.1185004 Z"
         id="A"
         transform="matrix(0.66596679,0,0,0.66879874,345.35058,232.56875)"
         inkscape:connector-curvature="0"
         style="opacity:0.80899999;filter:url(#6)" />
      <g
         id="g24759">
        <path
           style="fill:url(#7);stroke-width:0.68858773"
           inkscape:connector-curvature="0"
           id="B"
           d="m 358.73235,234.74276 v 78.58408 h 59.16698 v -57.3772 l -20.60334,-21.20688 z" />
        <path
           style="opacity:0.50499998;fill:url(#8);filter:url(#5)"
           inkscape:connector-curvature="0"
           transform="matrix(0.69966366,0,0,0.76587551,341.64534,232.7542)"
           d="m 81.698039,28.309502 0.135161,-8.351 C 81.901124,13.359407 80.956142,8.4107397 77.785779,3.9471419 L 80.362343,3.9159389 107.86271,29.53084 c -4.06802,-2.645393 -9.621189,-0.791242 -16.861906,-1.025606 z"
           id="C" />
        <path
           style="fill:#eeeeee;stroke-width:0.68858773"
           inkscape:connector-curvature="0"
           id="D"
           d="m 401.23611,250.76554 0.09,-5.56149 c 0.0452,-4.39478 -1.85338,-7.46159 -3.96474,-10.43419 l 20.56587,21.06263 c -2.70917,-1.76174 -5.67373,-4.78052 -10.49581,-4.9366 z" />
        <path
           style="fill:url(#9);stroke-width:0.68858773"
           inkscape:connector-curvature="0"
           d="m 401.23611,250.76554 0.09,-5.56149 c 0.0452,-4.39478 -1.85338,-7.46159 -3.96474,-10.43419 l 20.56587,21.06263 c -2.70917,-1.76174 -5.67373,-4.78052 -10.49581,-4.9366 z"
           id="E" />
        <ellipse
           id="path211"
           cx="388.58957"
           cy="281.46844"
           style="fill:url(#linearGradient219);fill-opacity:1;stroke-width:0.69491971"
           rx="27.11314"
           ry="26.621292" />
        <text
           xml:space="preserve"
           style="font-style:normal;font-variant:normal;font-weight:bold;font-stretch:normal;font-size:16.52610588px;line-height:1.25;font-family:sans-serif;-inkscape-font-specification:'sans-serif, Bold';font-variant-ligatures:normal;font-variant-caps:normal;font-variant-numeric:normal;font-feature-settings:normal;text-align:start;letter-spacing:0px;word-spacing:0px;writing-mode:lr-tb;text-anchor:start;fill:#000000;fill-opacity:1;stroke:none;stroke-width:0.68858773"
           x="363.46811"
           y="286.74344"
           id="text223"><tspan
             sodipodi:role="line"
             id="tspan237"
             x="363.46811"
             y="286.74344"
             style="stroke-width:0.68858773">ipynb</tspan><tspan
             sodipodi:role="line"
             id="tspan239"
             x="363.46811"
             y="307.40106"
             style="stroke-width:0.68858773"></tspan><tspan
             sodipodi:role="line"
             id="tspan241"
             x="363.46811"
             y="328.05872"
             style="stroke-width:0.68858773"></tspan></text>
      </g>
    </g>
    <g
       id="g24748"
       transform="matrix(0.76562811,0,0,0.76562811,-11.374856,52.006257)">
      <g
         id="1-1"
         transform="matrix(0.68858773,0,0,0.68858773,6.5855727,232.60845)">
        <path
           style="opacity:0.80899999;filter:url(#6-8)"
           inkscape:connector-curvature="0"
           transform="matrix(0.96714879,0,0,0.97126149,0.45622123,-0.61456831)"
           id="A-8"
           d="M 20.09375,4.1185004 V 122.1185 H 108.9375 V 35.96225 l -0.59375,-0.625 c 0.21045,0.144391 0.41688,0.302162 0.625,0.4375 L 78.09375,4.1497504 c 0.05654,0.079597 0.09993,0.1703021 0.15625,0.25 L 78,4.1185004 Z" />
        <path
           style="fill:url(#7-74)"
           inkscape:connector-curvature="0"
           id="B-9"
           d="M 19.889867,2.5426324 V 116.66619 H 105.81499 V 33.340277 L 75.893827,2.5426324 Z" />
        <path
           style="opacity:0.50499998;fill:url(#8-59);filter:url(#5-3)"
           inkscape:connector-curvature="0"
           transform="matrix(1.016085,0,0,1.112241,-4.9246966,-0.34524137)"
           d="m 81.698039,28.309502 0.135161,-8.351 C 81.901124,13.359407 80.956142,8.4107397 77.785779,3.9471419 L 80.362343,3.9159389 107.86271,29.53084 c -4.06802,-2.645393 -9.621189,-0.791242 -16.861906,-1.025606 z"
           id="C-64" />
        <path
           style="fill:#eeeeee"
           inkscape:connector-curvature="0"
           id="D-3"
           d="m 81.615861,25.811681 0.130721,-8.07666 C 81.812274,11.352715 79.055005,6.8989516 75.988792,2.5819884 L 105.85553,33.170155 c -3.93438,-2.558489 -8.239658,-6.942507 -15.242511,-7.169171 z" />
        <path
           style="fill:url(#linearGradient335)"
           inkscape:connector-curvature="0"
           d="m 81.615861,25.811681 0.130721,-8.07666 C 81.812274,11.352715 79.055005,6.8989516 75.988792,2.5819884 L 105.85553,33.170155 c -3.93438,-2.558489 -8.239658,-6.942507 -15.242511,-7.169171 z"
           id="E-3" />
      </g>
      <ellipse
         ry="26.621292"
         rx="27.11314"
         style="fill:url(#linearGradient219-2);fill-opacity:1;stroke-width:0.69491971"
         cy="281.08511"
         cx="50.138298"
         id="path211-3" />
      <text
         id="text223-8"
         y="284.983"
         x="29.148516"
         style="font-style:normal;font-variant:normal;font-weight:bold;font-stretch:normal;font-size:16.52610588px;line-height:1.25;font-family:sans-serif;-inkscape-font-specification:'sans-serif, Bold';font-variant-ligatures:normal;font-variant-caps:normal;font-variant-numeric:normal;font-feature-settings:normal;text-align:start;letter-spacing:0px;word-spacing:0px;writing-mode:lr-tb;text-anchor:start;fill:#000000;fill-opacity:1;stroke:none;stroke-width:0.68858773"
         xml:space="preserve"><tspan
           style="stroke-width:0.68858773"
           y="284.983"
           x="29.148516"
           id="tspan337"
           sodipodi:role="line">Rmd</tspan><tspan
           style="stroke-width:0.68858773"
           y="305.64062"
           x="29.148516"
           id="tspan339"
           sodipodi:role="line"></tspan><tspan
           style="stroke-width:0.68858773"
           y="326.29828"
           x="29.148516"
           id="tspan341"
           sodipodi:role="line"></tspan><tspan
           style="stroke-width:0.68858773"
           y="346.9559"
           x="29.148516"
           id="tspan343"
           sodipodi:role="line"></tspan></text>
    </g>
    <g
       id="g24898"
       transform="matrix(1.4986025,0,0,1.4986025,-74.078662,-128.38138)">
      <g
         id="1-1-4"
         transform="matrix(0.35179584,0,0,0.35179584,96.518468,239.09725)">
        <path
           style="opacity:0.80899999;filter:url(#6-8-9)"
           inkscape:connector-curvature="0"
           transform="matrix(0.96714879,0,0,0.97126149,0.45622123,-0.61456831)"
           id="A-8-0"
           d="M 20.09375,4.1185004 V 122.1185 H 108.9375 V 35.96225 l -0.59375,-0.625 c 0.21045,0.144391 0.41688,0.302162 0.625,0.4375 L 78.09375,4.1497504 c 0.05654,0.079597 0.09993,0.1703021 0.15625,0.25 L 78,4.1185004 Z" />
        <path
           style="fill:url(#7-74-7)"
           inkscape:connector-curvature="0"
           id="B-9-5"
           d="M 19.889867,2.5426324 V 116.66619 H 105.81499 V 33.340277 L 75.893827,2.5426324 Z" />
        <path
           style="opacity:0.50499998;fill:url(#8-59-3);filter:url(#5-3-0)"
           inkscape:connector-curvature="0"
           transform="matrix(1.016085,0,0,1.112241,-4.9246966,-0.34524137)"
           d="m 81.698039,28.309502 0.135161,-8.351 C 81.901124,13.359407 80.956142,8.4107397 77.785779,3.9471419 L 80.362343,3.9159389 107.86271,29.53084 c -4.06802,-2.645393 -9.621189,-0.791242 -16.861906,-1.025606 z"
           id="C-64-9" />
        <path
           style="fill:#eeeeee"
           inkscape:connector-curvature="0"
           id="D-3-4"
           d="m 81.615861,25.811681 0.130721,-8.07666 C 81.812274,11.352715 79.055005,6.8989516 75.988792,2.5819884 L 105.85553,33.170155 c -3.93438,-2.558489 -8.239658,-6.942507 -15.242511,-7.169171 z" />
        <path
           style="fill:url(#linearGradient440)"
           inkscape:connector-curvature="0"
           d="m 81.615861,25.811681 0.130721,-8.07666 C 81.812274,11.352715 79.055005,6.8989516 75.988792,2.5819884 L 105.85553,33.170155 c -3.93438,-2.558489 -8.239658,-6.942507 -15.242511,-7.169171 z"
           id="E-3-6" />
      </g>
      <ellipse
         ry="13.600677"
         rx="13.85196"
         style="fill:url(#linearGradient219-2-8);fill-opacity:1;stroke-width:0.3550308"
         cy="263.59372"
         cx="118.76933"
         id="path211-3-9" />
      <text
         id="text223-8-2"
         y="265.58517"
         x="110.86008"
         style="font-style:normal;font-variant:normal;font-weight:bold;font-stretch:normal;font-size:8.44309998px;line-height:1.25;font-family:sans-serif;-inkscape-font-specification:'sans-serif, Bold';font-variant-ligatures:normal;font-variant-caps:normal;font-variant-numeric:normal;font-feature-settings:normal;text-align:start;letter-spacing:0px;word-spacing:0px;writing-mode:lr-tb;text-anchor:start;fill:#000000;fill-opacity:1;stroke:none;stroke-width:0.35179582"
         xml:space="preserve"><tspan
           style="stroke-width:0.35179582"
           y="265.58517"
           x="110.86008"
           id="tspan442"
           sodipodi:role="line">md</tspan><tspan
           style="stroke-width:0.35179582"
           y="276.13904"
           x="110.86008"
           id="tspan444"
           sodipodi:role="line"></tspan><tspan
           style="stroke-width:0.35179582"
           y="286.69293"
           x="110.86008"
           id="tspan446"
           sodipodi:role="line"></tspan><tspan
           style="stroke-width:0.35179582"
           y="297.2468"
           x="110.86008"
           id="tspan448"
           sodipodi:role="line"></tspan></text>
    </g>
    <path
       inkscape:connector-curvature="0"
       id="path4862"
       style="fill:#000000;fill-opacity:1;fill-rule:evenodd;stroke:none;stroke-width:1.19410872"
       d="m 255.9767,203.78255 c -10.81334,0 -19.58059,8.65038 -19.58059,19.32194 0,8.53652 5.61041,15.77781 13.39193,18.33391 0.97976,0.17672 1.33679,-0.4199 1.33679,-0.9323 0,-0.45784 -0.0169,-1.67362 -0.0264,-3.28556 -5.44695,1.16714 -6.5962,-2.59049 -6.5962,-2.59049 -0.89079,-2.2311 -2.17468,-2.82534 -2.17468,-2.82534 -1.77798,-1.19917 0.1347,-1.17546 0.1347,-1.17546 1.9655,0.13768 2.99935,1.99152 2.99935,1.99152 1.74673,2.95225 4.5838,2.09942 5.69939,1.606 0.17793,-1.24899 0.68281,-2.10062 1.24302,-2.58337 -4.34818,-0.48751 -8.91994,-2.14571 -8.91994,-9.54949 0,-2.10892 0.76335,-3.83354 2.016,-5.18453 -0.20197,-0.48869 -0.87397,-2.45292 0.19114,-5.11339 0,0 1.64454,-0.51951 5.38562,1.98084 1.56159,-0.4282 3.23739,-0.64288 4.90236,-0.65 1.66258,0.007 3.33839,0.2218 4.90238,0.65 3.73868,-2.50035 5.3796,-1.98084 5.3796,-1.98084 1.06872,2.66047 0.39672,4.6247 0.19476,5.11339 1.25503,1.35099 2.0136,3.07561 2.0136,5.18453 0,7.42277 -4.57898,9.05606 -8.94158,9.53406 0.70323,0.59661 1.32957,1.77562 1.32957,3.57853 0,2.5822 -0.024,4.6662 -0.024,5.2996 0,0.51714 0.35224,1.11852 1.3464,0.92991 7.77551,-2.56083 13.38112,-9.79737 13.38112,-18.33152 0,-10.67156 -8.76848,-19.32194 -19.58421,-19.32194" />
    <g
       id="g24884"
       transform="matrix(0.61020291,0,0,1,21.254601,2.0410741)">
      <rect
         style="opacity:1;fill:#000000;stroke:#ff7b00;stroke-width:0;stroke-miterlimit:3.0999999;stroke-dasharray:none;stroke-dashoffset:0;stroke-opacity:1"
         id="rect24581-5"
         width="30.00873"
         height="1.6334305"
         x="57.048508"
         y="266.07443" />
      <path
         sodipodi:type="star"
         style="opacity:1;fill:#000000;stroke:#ff7b00;stroke-width:0;stroke-miterlimit:3.0999999;stroke-dasharray:none;stroke-dashoffset:0;stroke-opacity:1"
         id="path24585-5"
         sodipodi:sides="3"
         sodipodi:cx="1107.1272"
         sodipodi:cy="-359.47226"
         sodipodi:r1="41.600628"
         sodipodi:r2="20.800314"
         sodipodi:arg1="2.0943951"
         sodipodi:arg2="3.1415927"
         inkscape:flatsided="false"
         inkscape:rounded="0"
         inkscape:randomized="0"
         d="m 1086.3269,-323.44506 0,-36.0272 0,-36.0272 31.2005,18.0136 31.2004,18.0136 -31.2004,18.0136 z"
         transform="matrix(0.07696147,0,0,0.10106335,2.579323,302.96577)"
         inkscape:transform-center-x="-2.75171" />
    </g>
    <text
       xml:space="preserve"
       style="font-style:normal;font-variant:normal;font-weight:bold;font-stretch:normal;font-size:8.44309998px;line-height:1.25;font-family:sans-serif;-inkscape-font-specification:'sans-serif, Bold';font-variant-ligatures:normal;font-variant-caps:normal;font-variant-numeric:normal;font-feature-settings:normal;text-align:start;letter-spacing:0px;word-spacing:0px;writing-mode:lr-tb;text-anchor:start;fill:#000000;fill-opacity:1;stroke:none;stroke-width:0.35179582"
       x="54.042347"
       y="263.32831"
       id="text223-8-3"><tspan
         style="stroke-width:0.35179582"
         sodipodi:role="line"
         id="tspan337-9"
         x="54.042347"
         y="263.32831">knitr</tspan><tspan
         style="stroke-width:0.35179582"
         sodipodi:role="line"
         id="tspan339-1"
         x="54.042347"
         y="273.88217" /><tspan
         style="stroke-width:0.35179582"
         sodipodi:role="line"
         id="tspan341-8"
         x="54.042347"
         y="284.43607" /><tspan
         style="stroke-width:0.35179582"
         sodipodi:role="line"
         id="tspan343-8"
         x="54.042347"
         y="294.98993" /></text>
    <flowRoot
       xml:space="preserve"
       id="flowRoot9430"
       style="font-style:normal;font-weight:normal;font-size:40px;line-height:1.25;font-family:sans-serif;letter-spacing:0px;word-spacing:0px;fill:#000000;fill-opacity:1;stroke:none"
       transform="matrix(0.26458333,0,0,0.26458333,0,195.39999)"><flowRegion
         id="flowRegion9432"><rect
           id="rect9434"
           width="71.720825"
           height="26.26396"
           x="143.44167"
           y="384" /></flowRegion><flowPara
         id="flowPara9436" /></flowRoot>    <text
       xml:space="preserve"
       style="font-style:normal;font-variant:normal;font-weight:bold;font-stretch:normal;font-size:8.44309998px;line-height:1.25;font-family:sans-serif;-inkscape-font-specification:'sans-serif, Bold';font-variant-ligatures:normal;font-variant-caps:normal;font-variant-numeric:normal;font-feature-settings:normal;text-align:start;letter-spacing:0px;word-spacing:0px;writing-mode:lr-tb;text-anchor:start;fill:#000000;fill-opacity:1;stroke:none;stroke-width:0.35179582"
       x="129.85497"
       y="262.229"
       id="text223-8-3-3-7"><tspan
         style="stroke-width:0.35179582"
         sodipodi:role="line"
         id="tspan337-9-7-6"
         x="129.85497"
         y="262.229">pandoc</tspan><tspan
         style="stroke-width:0.35179582"
         sodipodi:role="line"
         id="tspan339-1-3-8"
         x="129.85497"
         y="272.78287" /><tspan
         style="stroke-width:0.35179582"
         sodipodi:role="line"
         id="tspan341-8-4-2"
         x="129.85497"
         y="283.33676" /><tspan
         style="stroke-width:0.35179582"
         sodipodi:role="line"
         id="tspan343-8-7-0"
         x="129.85497"
         y="293.89062" /></text>
    <g
       id="g24884-6"
       transform="matrix(0.61020291,0,0,1,101.79127,1.6375005)">
      <rect
         style="opacity:1;fill:#000000;stroke:#ff7b00;stroke-width:0;stroke-miterlimit:3.0999999;stroke-dasharray:none;stroke-dashoffset:0;stroke-opacity:1"
         id="rect24581-5-4"
         width="30.00873"
         height="1.6334305"
         x="57.048508"
         y="266.07443" />
      <path
         sodipodi:type="star"
         style="opacity:1;fill:#000000;stroke:#ff7b00;stroke-width:0;stroke-miterlimit:3.0999999;stroke-dasharray:none;stroke-dashoffset:0;stroke-opacity:1"
         id="path24585-5-3"
         sodipodi:sides="3"
         sodipodi:cx="1107.1272"
         sodipodi:cy="-359.47226"
         sodipodi:r1="41.600628"
         sodipodi:r2="20.800314"
         sodipodi:arg1="2.0943951"
         sodipodi:arg2="3.1415927"
         inkscape:flatsided="false"
         inkscape:rounded="0"
         inkscape:randomized="0"
         d="m 1086.3269,-323.44506 0,-36.0272 0,-36.0272 31.2005,18.0136 31.2004,18.0136 -31.2004,18.0136 z"
         transform="matrix(0.07696147,0,0,0.10106335,2.579323,302.96577)"
         inkscape:transform-center-x="-2.75171" />
    </g>
    <g
       id="g24884-6-3"
       transform="matrix(0.51939592,-0.32027406,0.52486484,0.85118558,46.473759,31.389828)">
      <rect
         style="opacity:1;fill:#000000;stroke:#ff7b00;stroke-width:0;stroke-miterlimit:3.0999999;stroke-dasharray:none;stroke-dashoffset:0;stroke-opacity:1"
         id="rect24581-5-4-6"
         width="30.00873"
         height="1.6334305"
         x="57.048508"
         y="266.07443" />
      <path
         sodipodi:type="star"
         style="opacity:1;fill:#000000;stroke:#ff7b00;stroke-width:0;stroke-miterlimit:3.0999999;stroke-dasharray:none;stroke-dashoffset:0;stroke-opacity:1"
         id="path24585-5-3-9"
         sodipodi:sides="3"
         sodipodi:cx="1107.1272"
         sodipodi:cy="-359.47226"
         sodipodi:r1="41.600628"
         sodipodi:r2="20.800314"
         sodipodi:arg1="2.0943951"
         sodipodi:arg2="3.1415927"
         inkscape:flatsided="false"
         inkscape:rounded="0"
         inkscape:randomized="0"
         d="m 1086.3269,-323.44506 0,-36.0272 0,-36.0272 31.2005,18.0136 31.2004,18.0136 -31.2004,18.0136 z"
         transform="matrix(0.07696147,0,0,0.10106335,2.579323,302.96577)"
         inkscape:transform-center-x="-2.75171" />
    </g>
    <text
       xml:space="preserve"
       style="font-style:normal;font-variant:normal;font-weight:bold;font-stretch:normal;font-size:8.44309998px;line-height:1.25;font-family:sans-serif;-inkscape-font-specification:'sans-serif, Bold';font-variant-ligatures:normal;font-variant-caps:normal;font-variant-numeric:normal;font-feature-settings:normal;text-align:start;letter-spacing:0px;word-spacing:0px;writing-mode:lr-tb;text-anchor:start;fill:#000000;fill-opacity:1;stroke:none;stroke-width:0.35179582"
       x="206.93919"
       y="208.13246"
       id="text223-8-3-0"><tspan
         style="stroke-width:0.35179582"
         sodipodi:role="line"
         id="tspan337-9-4"
         x="206.93919"
         y="208.13246">GitHub</tspan><tspan
         style="stroke-width:0.35179582"
         sodipodi:role="line"
         id="tspan339-1-8"
         x="206.93919"
         y="218.68634" /><tspan
         style="stroke-width:0.35179582"
         sodipodi:role="line"
         id="tspan341-8-5"
         x="206.93919"
         y="229.2402" /><tspan
         style="stroke-width:0.35179582"
         sodipodi:role="line"
         id="tspan343-8-1"
         x="206.93919"
         y="239.79408" /></text>
    <text
       xml:space="preserve"
       style="font-style:normal;font-weight:normal;font-size:26.08051682px;line-height:1.25;font-family:sans-serif;letter-spacing:0px;word-spacing:0px;fill:#800000;fill-opacity:1;stroke:none;stroke-width:0.65201288"
       x="61.374302"
       y="220.70522"
       id="text25004"><tspan
         sodipodi:role="line"
         x="61.374302"
         y="220.70522"
         style="fill:#800000;stroke-width:0.65201288"
         id="tspan25010">render</tspan></text>
    <text
       xml:space="preserve"
       style="font-style:normal;font-weight:normal;font-size:22.40158081px;line-height:1.25;font-family:sans-serif;letter-spacing:0px;word-spacing:0px;fill:#800000;fill-opacity:1;stroke:none;stroke-width:0.56003952"
       x="224.60887"
       y="264.03296"
       id="text25004-2"><tspan
         sodipodi:role="line"
         x="224.60887"
         y="264.03296"
         style="fill:#800000;stroke-width:0.56003952"
         id="tspan25035">upload</tspan></text>
  </g>
</svg>
